1,"https://attack.mitre.org/techniques/T1098","Account Manipulation",""Account manipulation may aid adversaries in maintaining access to credentials and certain permission levels within an environment. Manipulation could consist of modifying permissions modifying credentials adding or changing permission groups modifying account settings or modifying how authentication is performed. These actions could also include account activity designed to subvert security policies such as performing iterative password updates to subvert password duration policies and preserve the life of compromised credentials. In order to create or manipulate accounts the adversary must already have sufficient permissions on systems or the domain.""Credential Access",""Account manipulation may aid adversaries in maintaining access to credentials and certain permission levels within an environment.","Account Manipulation","T1098","Account Manipulation","Credential Access"
2,,,,""Account manipulation may aid adversaries in maintaining access to credentials and certain permission levels within an environment.","access credentials","T1081","Credentials in Files","Credential Access"
3,,,,"Manipulation could consist of modifying permissions modifying credentials adding or changing permission groups modifying account settings or modifying how authentication is performed.","performed authentication","T1187","Forced Authentication","Credential Access"
4,,,,"In order to create or manipulate accounts the adversary must already have sufficient permissions on systems or the domain.""","create accounts","T1136","Create Account","Persistence"
1,"https://attack.mitre.org/techniques/T1098","Account Manipulation","When operating systems boot up they can start programs or applications called services that perform background system functions. [1] A service's configuration information including the file path to the service's executable is stored in the Windows Registry.Adversaries may install a new service that can be configured to execute at startup by using utilities to interact with services or by directly modifying the Registry. The service name may be disguised by using a name from a related operating system or benign software with Masquerading. Services may be created with administrator privileges but are executed under SYSTEM privileges so an adversary may also use a service to escalate privileges from administrator to SYSTEM. Adversaries may also directly start services through Service Execution."Credential Access","When operating systems boot up they can start programs or applications called services that perform background system functions. [1] A service's configuration information including the file path to the service's executable is stored in the Windows Registry.Adversaries may install a new service that can be configured to execute at startup by using utilities to interact with services or by directly modifying the Registry.","New Service","T1050","New Service","Persistence;;Privilege Escalation"
2,,,,"The service name may be disguised by using a name from a related operating system or benign software with Masquerading.","Masquerading","T1036","Masquerading","Defense Evasion"
3,,,,"Services may be created with administrator privileges but are executed under SYSTEM privileges so an adversary may also use a service to escalate privileges from administrator to SYSTEM.","created Services","T1035","Service Execution","Execution"
4,,,,"Services may be created with administrator privileges but are executed under SYSTEM privileges so an adversary may also use a service to escalate privileges from administrator to SYSTEM.","executed Services","T1035","Service Execution","Execution"
5,,,,"Adversaries may also directly start services through Service Execution."","Service Execution","T1035","Service Execution","Execution"
1,"https://attack.mitre.org/techniques/T1098","Account Manipulation","When operating systems boot up they can start programs or applications called services that perform background system functions. [1] A service's configuration information including the file path to the service's executable is stored in the Windows Registry.Adversaries may install a new service that can be configured to execute at startup by using utilities to interact with services or by directly modifying the Registry. The service name may be disguised by using a name from a related operating system or benign software with Masquerading. Services may be created with administrator privileges but are executed under SYSTEM privileges so an adversary may also use a service to escalate privileges from administrator to SYSTEM. Adversaries may also directly start services through Service Execution.","When operating systems boot up they can start programs or applications called services that perform background system functions. [1] A service's configuration information including the file path to the service's executable is stored in the Windows Registry.Adversaries may install a new service that can be configured to execute at startup by using utilities to interact with services or by directly modifying the Registry.","New Service","T1050","New Service","Persistence;;Privilege Escalation"
2,,,,"The service name may be disguised by using a name from a related operating system or benign software with Masquerading.","Masquerading","T1036","Masquerading","Defense Evasion"
3,,,,"Services may be created with administrator privileges but are executed under SYSTEM privileges so an adversary may also use a service to escalate privileges from administrator to SYSTEM.","created Services","T1035","Service Execution","Execution"
4,,,,"Services may be created with administrator privileges but are executed under SYSTEM privileges so an adversary may also use a service to escalate privileges from administrator to SYSTEM.","executed Services","T1035","Service Execution","Execution"
5,,,,"Adversaries may also directly start services through Service Execution.","Service Execution","T1035","Service Execution","Execution"
